EESchema Schematic File Version 2
LIBS:power
LIBS:device
LIBS:transistors
LIBS:conn
LIBS:linear
LIBS:regul
LIBS:74xx
LIBS:cmos4000
LIBS:adc-dac
LIBS:memory
LIBS:xilinx
LIBS:special
LIBS:microcontrollers
LIBS:dsp
LIBS:microchip
LIBS:analog_switches
LIBS:motorola
LIBS:texas
LIBS:intel
LIBS:audio
LIBS:interface
LIBS:digital-audio
LIBS:philips
LIBS:display
LIBS:cypress
LIBS:siliconi
LIBS:opto
LIBS:atmel
LIBS:contrib
LIBS:valves
LIBS:max V board-cache
EELAYER 24 0
EELAYER END
$Descr A4 11693 8268
encoding utf-8
Sheet 1 1
Title "MAX V development board"
Date "23 Feb 2014"
Rev "A"
Comp "www.area0x33.com"
Comment1 "Board to program max V cpld with all pins available in the headers"
Comment2 ""
Comment3 ""
Comment4 ""
$EndDescr
Text Notes 2300 1000 0    60   ~ 0
CONNECT VCCIO to 1.2 V, 1.5 V, \n1.8 V, 2.5 V or 3.3 V supplies, \ndepending on the I/O standard \nassigned to the I/O bank.
Text Notes 1150 7500 0    60   ~ 0
All GND pins should be connected to the board ground plane
Text Notes 600  800  0    60   ~ 0
VCCINT supply must be 1.8V
Text Notes 5800 750  0    60   ~ 0
JTAG HEADER\n
$Comp
L CONN_5X2 P1
U 1 1 53064139
P 6200 1150
F 0 "P1" H 6200 1450 60  0000 C CNN
F 1 "CONN_5X2" V 6200 1150 50  0000 C CNN
F 2 "" H 6200 1150 60  0000 C CNN
F 3 "" H 6200 1150 60  0000 C CNN
	1    6200 1150
	1    0    0    -1  
$EndComp
$Comp
L +1.8V #PWR01
U 1 1 5306414D
P 1850 1500
F 0 "#PWR01" H 1850 1640 20  0001 C CNN
F 1 "+1.8V" H 1850 1610 30  0000 C CNN
F 2 "" H 1850 1500 60  0000 C CNN
F 3 "" H 1850 1500 60  0000 C CNN
	1    1850 1500
	1    0    0    -1  
$EndComp
Wire Wire Line
	1850 1500 1850 1650
Wire Wire Line
	1850 1550 1950 1550
Wire Wire Line
	1950 1550 1950 1650
Connection ~ 1850 1550
Wire Wire Line
	2150 1500 2150 1650
Wire Wire Line
	2350 1550 2350 1650
Wire Wire Line
	2250 1650 2250 1550
Connection ~ 2250 1550
$Comp
L +3.3V #PWR02
U 1 1 53064195
P 2150 1500
F 0 "#PWR02" H 2150 1460 30  0001 C CNN
F 1 "+3.3V" H 2150 1610 30  0000 C CNN
F 2 "" H 2150 1500 60  0000 C CNN
F 3 "" H 2150 1500 60  0000 C CNN
	1    2150 1500
	1    0    0    -1  
$EndComp
Connection ~ 2150 1550
Wire Wire Line
	2550 1500 2550 1650
Wire Wire Line
	2650 1550 2650 1650
Connection ~ 2550 1550
Wire Wire Line
	2750 1550 2750 1650
Connection ~ 2650 1550
Wire Wire Line
	2150 1550 2350 1550
$Comp
L +3.3V #PWR03
U 1 1 530641F1
P 2550 1500
F 0 "#PWR03" H 2550 1460 30  0001 C CNN
F 1 "+3.3V" H 2550 1610 30  0000 C CNN
F 2 "" H 2550 1500 60  0000 C CNN
F 3 "" H 2550 1500 60  0000 C CNN
	1    2550 1500
	1    0    0    -1  
$EndComp
Wire Wire Line
	2550 1550 2750 1550
Wire Wire Line
	2050 7050 2050 7050
Wire Wire Line
	2150 7050 2150 7050
Wire Wire Line
	2250 7050 2250 7050
Wire Wire Line
	2350 7050 2350 7050
$Comp
L 5M160Z-TQFP100 U1
U 1 1 53063D75
P 2350 4350
F 0 "U1" H 2950 6800 60  0000 C CNN
F 1 "5M160Z-TQFP100" H 2350 4700 60  0000 C CNN
F 2 "" H 2350 4350 60  0000 C CNN
F 3 "" H 2350 4350 60  0000 C CNN
	1    2350 4350
	1    0    0    -1  
$EndComp
Wire Wire Line
	1950 7050 1950 7200
$Comp
L DGND #PWR04
U 1 1 530643C0
P 1950 7200
F 0 "#PWR04" H 1950 7200 40  0001 C CNN
F 1 "DGND" H 1950 7130 40  0000 C CNN
F 2 "" H 1950 7200 60  0000 C CNN
F 3 "" H 1950 7200 60  0000 C CNN
	1    1950 7200
	1    0    0    -1  
$EndComp
Text Label 1000 4150 0    60   ~ 0
TCK
Text Label 1000 4250 0    60   ~ 0
TDO
Text Label 1000 3950 0    60   ~ 0
TMS
Text Label 1000 4050 0    60   ~ 0
TDI
Wire Wire Line
	1000 4050 1200 4050
Wire Wire Line
	1000 3950 1200 3950
Wire Wire Line
	1000 4250 1200 4250
Wire Wire Line
	1000 4150 1200 4150
NoConn ~ 5800 1250
Wire Wire Line
	6600 1050 6800 1050
Wire Wire Line
	6800 1050 6800 850 
$Comp
L DGND #PWR05
U 1 1 530644E2
P 6800 1500
F 0 "#PWR05" H 6800 1500 40  0001 C CNN
F 1 "DGND" H 6800 1430 40  0000 C CNN
F 2 "" H 6800 1500 60  0000 C CNN
F 3 "" H 6800 1500 60  0000 C CNN
	1    6800 1500
	1    0    0    -1  
$EndComp
Wire Wire Line
	6800 1350 6800 1500
Wire Wire Line
	6600 1350 6800 1350
Wire Wire Line
	6700 1350 6700 950 
Wire Wire Line
	6700 950  6600 950 
Connection ~ 6700 1350
Text Label 5600 950  0    60   ~ 0
TCK
Text Label 5600 1050 0    60   ~ 0
TDO
Text Label 5600 1150 0    60   ~ 0
TMS
Text Label 5600 1350 0    60   ~ 0
TDI
Wire Wire Line
	5600 1350 5800 1350
Wire Wire Line
	5600 1150 5800 1150
Wire Wire Line
	5600 1050 5800 1050
Wire Wire Line
	5600 950  5800 950 
$Comp
L +3.3V #PWR06
U 1 1 5306457E
P 7700 700
F 0 "#PWR06" H 7700 660 30  0001 C CNN
F 1 "+3.3V" H 7700 810 30  0000 C CNN
F 2 "" H 7700 700 60  0000 C CNN
F 3 "" H 7700 700 60  0000 C CNN
	1    7700 700 
	1    0    0    -1  
$EndComp
$Comp
L DGND #PWR07
U 1 1 53064592
P 8000 1900
F 0 "#PWR07" H 8000 1900 40  0001 C CNN
F 1 "DGND" H 8000 1830 40  0000 C CNN
F 2 "" H 8000 1900 60  0000 C CNN
F 3 "" H 8000 1900 60  0000 C CNN
	1    8000 1900
	1    0    0    -1  
$EndComp
$Comp
L R R2
U 1 1 530645F6
P 7700 1050
F 0 "R2" V 7780 1050 40  0000 C CNN
F 1 "10k" V 7707 1051 40  0000 C CNN
F 2 "" V 7630 1050 30  0000 C CNN
F 3 "" H 7700 1050 30  0000 C CNN
	1    7700 1050
	-1   0    0    1   
$EndComp
Text Label 7150 1650 0    60   ~ 0
TCK
Text Label 7150 1350 0    60   ~ 0
TDO
Text Label 7150 1450 0    60   ~ 0
TMS
Text Label 7150 1550 0    60   ~ 0
TDI
Wire Wire Line
	7150 1550 8000 1550
Wire Wire Line
	7700 700  7700 800 
Wire Wire Line
	7700 1300 7700 1350
Wire Wire Line
	7700 750  8000 750 
Connection ~ 7700 750 
$Comp
L R R3
U 1 1 530646B1
P 7850 1050
F 0 "R3" V 7930 1050 40  0000 C CNN
F 1 "10k" V 7857 1051 40  0000 C CNN
F 2 "" V 7780 1050 30  0000 C CNN
F 3 "" H 7850 1050 30  0000 C CNN
	1    7850 1050
	-1   0    0    1   
$EndComp
$Comp
L R R4
U 1 1 530646EC
P 8000 1050
F 0 "R4" V 8080 1050 40  0000 C CNN
F 1 "10k" V 8007 1051 40  0000 C CNN
F 2 "" V 7930 1050 30  0000 C CNN
F 3 "" H 8000 1050 30  0000 C CNN
	1    8000 1050
	-1   0    0    1   
$EndComp
Wire Wire Line
	7850 800  7850 750 
Connection ~ 7850 750 
Wire Wire Line
	8000 750  8000 800 
$Comp
L R R1
U 1 1 530647F6
P 7750 1650
F 0 "R1" V 7830 1650 40  0000 C CNN
F 1 "1k" V 7757 1651 40  0000 C CNN
F 2 "" V 7680 1650 30  0000 C CNN
F 3 "" H 7750 1650 30  0000 C CNN
	1    7750 1650
	0    1    1    0   
$EndComp
Wire Wire Line
	7150 1650 7500 1650
Wire Wire Line
	7700 1350 7150 1350
Wire Wire Line
	7850 1300 7850 1450
Wire Wire Line
	7850 1450 7150 1450
Wire Wire Line
	8000 1550 8000 1300
Text Notes 7100 900  0    60   ~ 0
All pull-up\nconnected\nto VCCIO1
$Comp
L CONN_10X2 P2
U 1 1 53064AD2
P 6450 3550
F 0 "P2" H 6450 4100 60  0000 C CNN
F 1 "CONN_10X2" V 6450 3450 50  0000 C CNN
F 2 "" H 6450 3550 60  0000 C CNN
F 3 "" H 6450 3550 60  0000 C CNN
	1    6450 3550
	1    0    0    -1  
$EndComp
Text Label 1000 2050 0    60   ~ 0
IO2
Wire Wire Line
	1200 2050 1000 2050
Text Label 1000 2150 0    60   ~ 0
IO3
Wire Wire Line
	1200 2150 1000 2150
Text Label 5850 3200 0    60   ~ 0
IO2
Wire Wire Line
	6050 3200 5850 3200
Text Label 7050 3200 2    60   ~ 0
IO3
Wire Wire Line
	6850 3200 7050 3200
Text Label 7050 3300 2    60   ~ 0
IO5
Wire Wire Line
	6850 3300 7050 3300
Text Label 7050 3400 2    60   ~ 0
IO7
Wire Wire Line
	6850 3400 7050 3400
Text Label 7050 3500 2    60   ~ 0
CLK0
Wire Wire Line
	6850 3500 7050 3500
Text Label 7050 3600 2    60   ~ 0
IO15
Wire Wire Line
	6850 3600 7050 3600
Text Label 7050 3700 2    60   ~ 0
IO17
Wire Wire Line
	6850 3700 7050 3700
Text Label 7050 3800 2    60   ~ 0
IO19
Wire Wire Line
	6850 3800 7050 3800
Text Label 7050 3900 2    60   ~ 0
IO21
Wire Wire Line
	6850 3900 7050 3900
Text Label 7050 4000 2    60   ~ 0
IO27
Wire Wire Line
	6850 4000 7050 4000
Text Label 5850 3300 0    60   ~ 0
IO4
Wire Wire Line
	6050 3300 5850 3300
Text Label 5850 3400 0    60   ~ 0
IO6
Wire Wire Line
	6050 3400 5850 3400
Text Label 5850 3500 0    60   ~ 0
IO8
Wire Wire Line
	6050 3500 5850 3500
Text Label 5850 3600 0    60   ~ 0
CLK1
Wire Wire Line
	6050 3600 5850 3600
Text Label 5850 3700 0    60   ~ 0
IO16
Wire Wire Line
	6050 3700 5850 3700
Text Label 5850 3800 0    60   ~ 0
IO18
Wire Wire Line
	6050 3800 5850 3800
Text Label 5850 3900 0    60   ~ 0
IO20
Wire Wire Line
	6050 3900 5850 3900
Text Label 5850 4000 0    60   ~ 0
IO26
Wire Wire Line
	6050 4000 5850 4000
Text Label 1000 2250 0    60   ~ 0
IO4
Wire Wire Line
	1200 2250 1000 2250
Text Label 1000 2350 0    60   ~ 0
IO5
Wire Wire Line
	1200 2350 1000 2350
Text Label 1000 2450 0    60   ~ 0
IO6
Wire Wire Line
	1200 2450 1000 2450
Text Label 1000 2550 0    60   ~ 0
IO7
Wire Wire Line
	1200 2550 1000 2550
Text Label 1000 2650 0    60   ~ 0
IO8
Wire Wire Line
	1200 2650 1000 2650
Text Label 1000 3150 0    60   ~ 0
IO15
Wire Wire Line
	1200 3150 1000 3150
Text Label 1000 3250 0    60   ~ 0
IO16
Wire Wire Line
	1200 3250 1000 3250
Text Label 1000 3350 0    60   ~ 0
IO17
Wire Wire Line
	1200 3350 1000 3350
Text Label 1000 3450 0    60   ~ 0
IO18
Wire Wire Line
	1200 3450 1000 3450
Text Label 1000 3550 0    60   ~ 0
IO19
Wire Wire Line
	1200 3550 1000 3550
Text Label 1000 3650 0    60   ~ 0
IO20
Wire Wire Line
	1200 3650 1000 3650
Text Label 1000 3750 0    60   ~ 0
IO21
Wire Wire Line
	1200 3750 1000 3750
Text Label 1000 2850 0    60   ~ 0
CLK0
Wire Wire Line
	1200 2850 1000 2850
Text Label 1000 2950 0    60   ~ 0
CLK1
Wire Wire Line
	1200 2950 1000 2950
Text Label 1000 4450 0    60   ~ 0
IO26
Wire Wire Line
	1200 4450 1000 4450
Text Label 1000 4550 0    60   ~ 0
IO27
Wire Wire Line
	1200 4550 1000 4550
Text Label 1000 4650 0    60   ~ 0
IO28
Wire Wire Line
	1200 4650 1000 4650
Text Label 1000 4750 0    60   ~ 0
IO29
Wire Wire Line
	1200 4750 1000 4750
Text Label 1000 4850 0    60   ~ 0
IO30
Wire Wire Line
	1200 4850 1000 4850
Text Label 1000 5050 0    60   ~ 0
IO33
Wire Wire Line
	1200 5050 1000 5050
$Comp
L DGND #PWR08
U 1 1 53065090
P 7000 3000
F 0 "#PWR08" H 7000 3000 40  0001 C CNN
F 1 "DGND" H 7000 2930 40  0000 C CNN
F 2 "" H 7000 3000 60  0000 C CNN
F 3 "" H 7000 3000 60  0000 C CNN
	1    7000 3000
	1    0    0    -1  
$EndComp
Wire Wire Line
	5850 3100 6050 3100
Wire Wire Line
	6850 3100 6900 3100
Wire Wire Line
	6900 3100 6900 2950
Wire Wire Line
	6900 2950 7000 2950
Wire Wire Line
	7000 2950 7000 3000
$Comp
L CONN_10X2 P3
U 1 1 530652A9
P 6450 4850
F 0 "P3" H 6450 5400 60  0000 C CNN
F 1 "CONN_10X2" V 6450 4750 50  0000 C CNN
F 2 "" H 6450 4850 60  0000 C CNN
F 3 "" H 6450 4850 60  0000 C CNN
	1    6450 4850
	1    0    0    -1  
$EndComp
Text Label 5850 4500 0    60   ~ 0
IO28
Wire Wire Line
	6050 4500 5850 4500
Text Label 7050 4500 2    60   ~ 0
IO29
Wire Wire Line
	6850 4500 7050 4500
Text Label 7050 4600 2    60   ~ 0
IO33
Wire Wire Line
	6850 4600 7050 4600
Text Label 7050 4700 2    60   ~ 0
IO35
Wire Wire Line
	6850 4700 7050 4700
Text Label 7050 4800 2    60   ~ 0
IO37
Wire Wire Line
	6850 4800 7050 4800
Text Label 7050 4900 2    60   ~ 0
IO39
Wire Wire Line
	6850 4900 7050 4900
Text Label 7050 5000 2    60   ~ 0
IO41
Wire Wire Line
	6850 5000 7050 5000
Text Label 7050 5100 2    60   ~ 0
IO43
Wire Wire Line
	6850 5100 7050 5100
Text Label 7050 5200 2    60   ~ 0
IO47
Wire Wire Line
	6850 5200 7050 5200
Text Label 7050 5300 2    60   ~ 0
IO49
Wire Wire Line
	6850 5300 7050 5300
Text Label 5850 4600 0    60   ~ 0
IO30
Wire Wire Line
	6050 4600 5850 4600
Text Label 5850 4700 0    60   ~ 0
IO34
Wire Wire Line
	6050 4700 5850 4700
Text Label 5850 4800 0    60   ~ 0
IO36
Wire Wire Line
	6050 4800 5850 4800
Text Label 5850 4900 0    60   ~ 0
IO38
Wire Wire Line
	6050 4900 5850 4900
Text Label 5850 5000 0    60   ~ 0
IO40
Wire Wire Line
	6050 5000 5850 5000
Text Label 5850 5100 0    60   ~ 0
IO42
Wire Wire Line
	6050 5100 5850 5100
Text Label 5850 5200 0    60   ~ 0
IO44
Wire Wire Line
	6050 5200 5850 5200
Text Label 5850 5300 0    60   ~ 0
IO48
Wire Wire Line
	6050 5300 5850 5300
$Comp
L DGND #PWR09
U 1 1 530652D3
P 7000 4300
F 0 "#PWR09" H 7000 4300 40  0001 C CNN
F 1 "DGND" H 7000 4230 40  0000 C CNN
F 2 "" H 7000 4300 60  0000 C CNN
F 3 "" H 7000 4300 60  0000 C CNN
	1    7000 4300
	1    0    0    -1  
$EndComp
$Comp
L +3.3V #PWR010
U 1 1 530652D9
P 5850 4350
F 0 "#PWR010" H 5850 4310 30  0001 C CNN
F 1 "+3.3V" H 5850 4460 30  0000 C CNN
F 2 "" H 5850 4350 60  0000 C CNN
F 3 "" H 5850 4350 60  0000 C CNN
	1    5850 4350
	1    0    0    -1  
$EndComp
Wire Wire Line
	5850 4350 5850 4400
Wire Wire Line
	5850 4400 6050 4400
Wire Wire Line
	6850 4400 6900 4400
Wire Wire Line
	6900 4400 6900 4250
Wire Wire Line
	6900 4250 7000 4250
Wire Wire Line
	7000 4250 7000 4300
$Comp
L CONN_10X2 P4
U 1 1 530652E5
P 8300 3550
F 0 "P4" H 8300 4100 60  0000 C CNN
F 1 "CONN_10X2" V 8300 3450 50  0000 C CNN
F 2 "" H 8300 3550 60  0000 C CNN
F 3 "" H 8300 3550 60  0000 C CNN
	1    8300 3550
	1    0    0    -1  
$EndComp
Text Label 7700 3200 0    60   ~ 0
IO72
Wire Wire Line
	7900 3200 7700 3200
Text Label 8900 3200 2    60   ~ 0
IO73
Wire Wire Line
	8700 3200 8900 3200
Text Label 8900 3300 2    60   ~ 0
IO75
Wire Wire Line
	8700 3300 8900 3300
Text Label 8900 3400 2    60   ~ 0
IO77
Wire Wire Line
	8700 3400 8900 3400
Text Label 8900 3500 2    60   ~ 0
IO81
Wire Wire Line
	8700 3500 8900 3500
Text Label 8900 3600 2    60   ~ 0
IO83
Wire Wire Line
	8700 3600 8900 3600
Text Label 8900 3700 2    60   ~ 0
IO85
Wire Wire Line
	8700 3700 8900 3700
Text Label 8900 3800 2    60   ~ 0
IO87
Wire Wire Line
	8700 3800 8900 3800
Text Label 8900 3900 2    60   ~ 0
IO89
Wire Wire Line
	8700 3900 8900 3900
Text Label 8900 4000 2    60   ~ 0
IO91
Wire Wire Line
	8700 4000 8900 4000
Text Label 7700 3300 0    60   ~ 0
IO74
Wire Wire Line
	7900 3300 7700 3300
Text Label 7700 3400 0    60   ~ 0
IO76
Wire Wire Line
	7900 3400 7700 3400
Text Label 7700 3500 0    60   ~ 0
IO78
Wire Wire Line
	7900 3500 7700 3500
Text Label 7700 3600 0    60   ~ 0
IO82
Wire Wire Line
	7900 3600 7700 3600
Text Label 7700 3700 0    60   ~ 0
IO84
Wire Wire Line
	7900 3700 7700 3700
Text Label 7700 3800 0    60   ~ 0
IO86
Wire Wire Line
	7900 3800 7700 3800
Text Label 7700 3900 0    60   ~ 0
IO88
Wire Wire Line
	7900 3900 7700 3900
Text Label 7700 4000 0    60   ~ 0
IO90
Wire Wire Line
	7900 4000 7700 4000
$Comp
L DGND #PWR011
U 1 1 5306530F
P 8850 3000
F 0 "#PWR011" H 8850 3000 40  0001 C CNN
F 1 "DGND" H 8850 2930 40  0000 C CNN
F 2 "" H 8850 3000 60  0000 C CNN
F 3 "" H 8850 3000 60  0000 C CNN
	1    8850 3000
	1    0    0    -1  
$EndComp
$Comp
L +3.3V #PWR012
U 1 1 53065315
P 7700 3050
F 0 "#PWR012" H 7700 3010 30  0001 C CNN
F 1 "+3.3V" H 7700 3160 30  0000 C CNN
F 2 "" H 7700 3050 60  0000 C CNN
F 3 "" H 7700 3050 60  0000 C CNN
	1    7700 3050
	1    0    0    -1  
$EndComp
Wire Wire Line
	7700 3050 7700 3100
Wire Wire Line
	7700 3100 7900 3100
Wire Wire Line
	8700 3100 8750 3100
Wire Wire Line
	8750 3100 8750 2950
Wire Wire Line
	8750 2950 8850 2950
Wire Wire Line
	8850 2950 8850 3000
$Comp
L CONN_10X2 P5
U 1 1 53065321
P 8300 4850
F 0 "P5" H 8300 5400 60  0000 C CNN
F 1 "CONN_10X2" V 8300 4750 50  0000 C CNN
F 2 "" H 8300 4850 60  0000 C CNN
F 3 "" H 8300 4850 60  0000 C CNN
	1    8300 4850
	1    0    0    -1  
$EndComp
Text Label 7700 4500 0    60   ~ 0
IO50
Wire Wire Line
	7900 4500 7700 4500
Text Label 8900 4500 2    60   ~ 0
IO51
Wire Wire Line
	8700 4500 8900 4500
Text Label 8900 4600 2    60   ~ 0
IO53
Wire Wire Line
	8700 4600 8900 4600
Text Label 8900 4700 2    60   ~ 0
IO55
Wire Wire Line
	8700 4700 8900 4700
Text Label 8900 4800 2    60   ~ 0
IO57
Wire Wire Line
	8700 4800 8900 4800
Text Label 8900 4900 2    60   ~ 0
IO61
Wire Wire Line
	8700 4900 8900 4900
Text Label 8900 5000 2    60   ~ 0
CLK3
Wire Wire Line
	8700 5000 8900 5000
Text Label 8900 5100 2    60   ~ 0
IO67
Wire Wire Line
	8700 5100 8900 5100
Text Label 8900 5200 2    60   ~ 0
IO69
Wire Wire Line
	8700 5200 8900 5200
Text Label 8900 5300 2    60   ~ 0
IO71
Wire Wire Line
	8700 5300 8900 5300
Text Label 7700 4600 0    60   ~ 0
IO52
Wire Wire Line
	7900 4600 7700 4600
Text Label 7700 4700 0    60   ~ 0
IO54
Wire Wire Line
	7900 4700 7700 4700
Text Label 7700 4800 0    60   ~ 0
IO56
Wire Wire Line
	7900 4800 7700 4800
Text Label 7700 4900 0    60   ~ 0
IO58
Wire Wire Line
	7900 4900 7700 4900
Text Label 7700 5000 0    60   ~ 0
CLK2
Wire Wire Line
	7900 5000 7700 5000
Text Label 7700 5100 0    60   ~ 0
IO66
Wire Wire Line
	7900 5100 7700 5100
Text Label 7700 5200 0    60   ~ 0
IO68
Wire Wire Line
	7900 5200 7700 5200
Text Label 7700 5300 0    60   ~ 0
IO70
Wire Wire Line
	7900 5300 7700 5300
$Comp
L DGND #PWR013
U 1 1 5306534B
P 8850 4300
F 0 "#PWR013" H 8850 4300 40  0001 C CNN
F 1 "DGND" H 8850 4230 40  0000 C CNN
F 2 "" H 8850 4300 60  0000 C CNN
F 3 "" H 8850 4300 60  0000 C CNN
	1    8850 4300
	1    0    0    -1  
$EndComp
$Comp
L +3.3V #PWR014
U 1 1 53065351
P 7700 4350
F 0 "#PWR014" H 7700 4310 30  0001 C CNN
F 1 "+3.3V" H 7700 4460 30  0000 C CNN
F 2 "" H 7700 4350 60  0000 C CNN
F 3 "" H 7700 4350 60  0000 C CNN
	1    7700 4350
	1    0    0    -1  
$EndComp
Wire Wire Line
	7700 4350 7700 4400
Wire Wire Line
	7700 4400 7900 4400
Wire Wire Line
	8700 4400 8750 4400
Wire Wire Line
	8750 4400 8750 4250
Wire Wire Line
	8750 4250 8850 4250
Wire Wire Line
	8850 4250 8850 4300
Text Label 1000 5150 0    60   ~ 0
IO34
Wire Wire Line
	1200 5150 1000 5150
Text Label 1000 5250 0    60   ~ 0
IO35
Wire Wire Line
	1200 5250 1000 5250
Text Label 1000 5350 0    60   ~ 0
IO36
Wire Wire Line
	1200 5350 1000 5350
Text Label 1000 5450 0    60   ~ 0
IO37
Wire Wire Line
	1200 5450 1000 5450
Text Label 1000 5550 0    60   ~ 0
IO38
Wire Wire Line
	1200 5550 1000 5550
Text Label 1000 5650 0    60   ~ 0
IO39
Wire Wire Line
	1200 5650 1000 5650
Text Label 1000 5750 0    60   ~ 0
IO40
Wire Wire Line
	1200 5750 1000 5750
Text Label 1000 5850 0    60   ~ 0
IO41
Wire Wire Line
	1200 5850 1000 5850
Text Label 1000 5950 0    60   ~ 0
IO42
Wire Wire Line
	1200 5950 1000 5950
Text Label 1000 6050 0    60   ~ 0
IO43
Wire Wire Line
	1200 6050 1000 6050
Text Label 1000 6150 0    60   ~ 0
IO44
Wire Wire Line
	1200 6150 1000 6150
Text Label 1000 6350 0    60   ~ 0
IO47
Wire Wire Line
	1200 6350 1000 6350
Text Label 1000 6450 0    60   ~ 0
IO48
Wire Wire Line
	1200 6450 1000 6450
Text Label 1000 6550 0    60   ~ 0
IO49
Wire Wire Line
	1200 6550 1000 6550
Text Label 1000 6650 0    60   ~ 0
IO50
Wire Wire Line
	1200 6650 1000 6650
Text Label 9300 3450 0    60   ~ 0
IO92
Wire Wire Line
	9500 3450 9300 3450
Text Label 10500 3450 2    60   ~ 0
IO95
Wire Wire Line
	10300 3450 10500 3450
Text Label 10500 3550 2    60   ~ 0
IO97
Wire Wire Line
	10300 3550 10500 3550
Text Label 10500 3650 2    60   ~ 0
IO99
Wire Wire Line
	10300 3650 10500 3650
Text Label 9300 3550 0    60   ~ 0
IO96
Wire Wire Line
	9500 3550 9300 3550
Text Label 9300 3650 0    60   ~ 0
IO98
Wire Wire Line
	9500 3650 9300 3650
Text Label 9250 3750 0    60   ~ 0
IO100
Wire Wire Line
	9500 3750 9250 3750
$Comp
L +3.3V #PWR015
U 1 1 53065940
P 9300 3300
F 0 "#PWR015" H 9300 3260 30  0001 C CNN
F 1 "+3.3V" H 9300 3410 30  0000 C CNN
F 2 "" H 9300 3300 60  0000 C CNN
F 3 "" H 9300 3300 60  0000 C CNN
	1    9300 3300
	1    0    0    -1  
$EndComp
Wire Wire Line
	9300 3300 9300 3350
Wire Wire Line
	9300 3350 9500 3350
Wire Wire Line
	10300 3350 10350 3350
Wire Wire Line
	10350 3350 10350 3200
Wire Wire Line
	10350 3200 10450 3200
Wire Wire Line
	10450 3200 10450 3250
$Comp
L CONN_5X2 P6
U 1 1 53065952
P 9900 3550
F 0 "P6" H 9900 3850 60  0000 C CNN
F 1 "CONN_5X2" V 9900 3550 50  0000 C CNN
F 2 "" H 9900 3550 60  0000 C CNN
F 3 "" H 9900 3550 60  0000 C CNN
	1    9900 3550
	1    0    0    -1  
$EndComp
$Comp
L DGND #PWR016
U 1 1 5306595D
P 10450 3250
F 0 "#PWR016" H 10450 3250 40  0001 C CNN
F 1 "DGND" H 10450 3180 40  0000 C CNN
F 2 "" H 10450 3250 60  0000 C CNN
F 3 "" H 10450 3250 60  0000 C CNN
	1    10450 3250
	1    0    0    -1  
$EndComp
$Comp
L DGND #PWR017
U 1 1 53065971
P 10500 3800
F 0 "#PWR017" H 10500 3800 40  0001 C CNN
F 1 "DGND" H 10500 3730 40  0000 C CNN
F 2 "" H 10500 3800 60  0000 C CNN
F 3 "" H 10500 3800 60  0000 C CNN
	1    10500 3800
	1    0    0    -1  
$EndComp
Wire Wire Line
	10500 3800 10500 3750
Wire Wire Line
	10500 3750 10300 3750
Text Label 3700 2050 2    60   ~ 0
IO51
Wire Wire Line
	3500 2050 3700 2050
Text Label 3700 2150 2    60   ~ 0
IO52
Wire Wire Line
	3500 2150 3700 2150
Text Label 3700 2250 2    60   ~ 0
IO53
Wire Wire Line
	3500 2250 3700 2250
Text Label 3700 2350 2    60   ~ 0
IO54
Wire Wire Line
	3500 2350 3700 2350
Text Label 3700 2450 2    60   ~ 0
IO55
Wire Wire Line
	3500 2450 3700 2450
Text Label 3700 2550 2    60   ~ 0
IO56
Wire Wire Line
	3500 2550 3700 2550
Text Label 3700 2650 2    60   ~ 0
IO57
Wire Wire Line
	3500 2650 3700 2650
Text Label 3700 2750 2    60   ~ 0
IO58
Wire Wire Line
	3500 2750 3700 2750
Text Label 3700 3000 2    60   ~ 0
IO61
Wire Wire Line
	3500 3000 3700 3000
Text Label 3700 3100 2    60   ~ 0
CLK2
Wire Wire Line
	3500 3100 3700 3100
Text Label 3700 3300 2    60   ~ 0
CLK3
Wire Wire Line
	3500 3300 3700 3300
Text Label 3700 3500 2    60   ~ 0
IO66
Wire Wire Line
	3500 3500 3700 3500
Text Label 3700 3600 2    60   ~ 0
IO67
Wire Wire Line
	3500 3600 3700 3600
Text Label 3700 3700 2    60   ~ 0
IO68
Wire Wire Line
	3500 3700 3700 3700
Text Label 3700 3800 2    60   ~ 0
IO69
Wire Wire Line
	3500 3800 3700 3800
Text Label 3700 3900 2    60   ~ 0
IO70
Wire Wire Line
	3500 3900 3700 3900
Text Label 3700 4000 2    60   ~ 0
IO71
Wire Wire Line
	3500 4000 3700 4000
Text Label 3700 4100 2    60   ~ 0
IO72
Wire Wire Line
	3500 4100 3700 4100
Text Label 3700 4200 2    60   ~ 0
IO73
Wire Wire Line
	3500 4200 3700 4200
Text Label 3700 4300 2    60   ~ 0
IO74
Wire Wire Line
	3500 4300 3700 4300
Text Label 3700 4400 2    60   ~ 0
IO75
Wire Wire Line
	3500 4400 3700 4400
Text Label 3700 4500 2    60   ~ 0
IO76
Wire Wire Line
	3500 4500 3700 4500
Text Label 3700 4600 2    60   ~ 0
IO77
Wire Wire Line
	3500 4600 3700 4600
Text Label 3700 4700 2    60   ~ 0
IO78
Wire Wire Line
	3500 4700 3700 4700
Text Label 3700 4850 2    60   ~ 0
IO81
Wire Wire Line
	3500 4850 3700 4850
Text Label 3700 4950 2    60   ~ 0
IO82
Wire Wire Line
	3500 4950 3700 4950
Text Label 3700 5050 2    60   ~ 0
IO83
Wire Wire Line
	3500 5050 3700 5050
Text Label 3700 5150 2    60   ~ 0
IO84
Wire Wire Line
	3500 5150 3700 5150
Text Label 3700 5250 2    60   ~ 0
IO85
Wire Wire Line
	3500 5250 3700 5250
Text Label 3700 5350 2    60   ~ 0
IO86
Wire Wire Line
	3500 5350 3700 5350
Text Label 3700 5450 2    60   ~ 0
IO87
Wire Wire Line
	3500 5450 3700 5450
Text Label 3700 5550 2    60   ~ 0
IO88
Wire Wire Line
	3500 5550 3700 5550
Text Label 3700 5650 2    60   ~ 0
IO89
Wire Wire Line
	3500 5650 3700 5650
Text Label 3700 5750 2    60   ~ 0
IO90
Wire Wire Line
	3500 5750 3700 5750
Text Label 3700 5850 2    60   ~ 0
IO91
Wire Wire Line
	3500 5850 3700 5850
Text Label 3700 5950 2    60   ~ 0
IO92
Wire Wire Line
	3500 5950 3700 5950
Text Label 3700 6150 2    60   ~ 0
IO95
Wire Wire Line
	3500 6150 3700 6150
Text Label 3700 6250 2    60   ~ 0
IO96
Wire Wire Line
	3500 6250 3700 6250
Text Label 3700 6350 2    60   ~ 0
IO97
Wire Wire Line
	3500 6350 3700 6350
Text Label 3700 6450 2    60   ~ 0
IO98
Wire Wire Line
	3500 6450 3700 6450
Text Label 3700 6550 2    60   ~ 0
IO99
Wire Wire Line
	3500 6550 3700 6550
Text Label 3750 6650 2    60   ~ 0
IO100
Wire Wire Line
	3500 6650 3750 6650
Wire Wire Line
	1950 7150 2750 7150
Connection ~ 1950 7150
Wire Wire Line
	2750 7150 2750 7050
Wire Wire Line
	2650 7150 2650 7050
Connection ~ 2650 7150
Wire Wire Line
	2550 7150 2550 7050
Connection ~ 2550 7150
Wire Wire Line
	2450 7050 2450 7150
Connection ~ 2450 7150
Wire Wire Line
	2350 7050 2350 7150
Connection ~ 2350 7150
Wire Wire Line
	2250 7050 2250 7150
Connection ~ 2250 7150
Wire Wire Line
	2150 7050 2150 7150
Connection ~ 2150 7150
Wire Wire Line
	2050 7050 2050 7150
Connection ~ 2050 7150
NoConn ~ 6600 1150
NoConn ~ 6600 1250
$Comp
L +3.3V #PWR018
U 1 1 53064497
P 6800 850
F 0 "#PWR018" H 6800 810 30  0001 C CNN
F 1 "+3.3V" H 6800 960 30  0000 C CNN
F 2 "" H 6800 850 60  0000 C CNN
F 3 "" H 6800 850 60  0000 C CNN
	1    6800 850 
	1    0    0    -1  
$EndComp
$Comp
L C C1
U 1 1 53078153
P 8850 2200
F 0 "C1" H 8850 2300 40  0000 L CNN
F 1 "100n" H 8856 2115 40  0000 L CNN
F 2 "" H 8888 2050 30  0000 C CNN
F 3 "" H 8850 2200 60  0000 C CNN
	1    8850 2200
	1    0    0    -1  
$EndComp
$Comp
L C C2
U 1 1 53078167
P 9050 2200
F 0 "C2" H 9050 2300 40  0000 L CNN
F 1 "100n" H 9056 2115 40  0000 L CNN
F 2 "" H 9088 2050 30  0000 C CNN
F 3 "" H 9050 2200 60  0000 C CNN
	1    9050 2200
	1    0    0    -1  
$EndComp
$Comp
L C C3
U 1 1 53078179
P 9250 2200
F 0 "C3" H 9250 2300 40  0000 L CNN
F 1 "100n" H 9256 2115 40  0000 L CNN
F 2 "" H 9288 2050 30  0000 C CNN
F 3 "" H 9250 2200 60  0000 C CNN
	1    9250 2200
	1    0    0    -1  
$EndComp
$Comp
L C C4
U 1 1 53078184
P 9450 2200
F 0 "C4" H 9450 2300 40  0000 L CNN
F 1 "100n" H 9456 2115 40  0000 L CNN
F 2 "" H 9488 2050 30  0000 C CNN
F 3 "" H 9450 2200 60  0000 C CNN
	1    9450 2200
	1    0    0    -1  
$EndComp
$Comp
L C C5
U 1 1 5307818F
P 9650 2200
F 0 "C5" H 9650 2300 40  0000 L CNN
F 1 "100n" H 9656 2115 40  0000 L CNN
F 2 "" H 9688 2050 30  0000 C CNN
F 3 "" H 9650 2200 60  0000 C CNN
	1    9650 2200
	1    0    0    -1  
$EndComp
$Comp
L C C6
U 1 1 5307819A
P 9850 2200
F 0 "C6" H 9850 2300 40  0000 L CNN
F 1 "100n" H 9856 2115 40  0000 L CNN
F 2 "" H 9888 2050 30  0000 C CNN
F 3 "" H 9850 2200 60  0000 C CNN
	1    9850 2200
	1    0    0    -1  
$EndComp
$Comp
L C C7
U 1 1 530781B0
P 10200 2200
F 0 "C7" H 10200 2300 40  0000 L CNN
F 1 "100n" H 10206 2115 40  0000 L CNN
F 2 "" H 10238 2050 30  0000 C CNN
F 3 "" H 10200 2200 60  0000 C CNN
	1    10200 2200
	1    0    0    -1  
$EndComp
$Comp
L C C8
U 1 1 530781BB
P 10400 2200
F 0 "C8" H 10400 2300 40  0000 L CNN
F 1 "100n" H 10406 2115 40  0000 L CNN
F 2 "" H 10438 2050 30  0000 C CNN
F 3 "" H 10400 2200 60  0000 C CNN
	1    10400 2200
	1    0    0    -1  
$EndComp
$Comp
L +3.3V #PWR019
U 1 1 530781D1
P 8850 1900
F 0 "#PWR019" H 8850 1860 30  0001 C CNN
F 1 "+3.3V" H 8850 2010 30  0000 C CNN
F 2 "" H 8850 1900 60  0000 C CNN
F 3 "" H 8850 1900 60  0000 C CNN
	1    8850 1900
	1    0    0    -1  
$EndComp
$Comp
L +1.8V #PWR020
U 1 1 530781DC
P 10200 1900
F 0 "#PWR020" H 10200 2040 20  0001 C CNN
F 1 "+1.8V" H 10200 2010 30  0000 C CNN
F 2 "" H 10200 1900 60  0000 C CNN
F 3 "" H 10200 1900 60  0000 C CNN
	1    10200 1900
	1    0    0    -1  
$EndComp
$Comp
L DGND #PWR021
U 1 1 530781F1
P 8850 2600
F 0 "#PWR021" H 8850 2600 40  0001 C CNN
F 1 "DGND" H 8850 2530 40  0000 C CNN
F 2 "" H 8850 2600 60  0000 C CNN
F 3 "" H 8850 2600 60  0000 C CNN
	1    8850 2600
	1    0    0    -1  
$EndComp
Wire Wire Line
	8850 2400 8850 2600
Wire Wire Line
	10400 2500 10400 2400
Connection ~ 8850 2500
Wire Wire Line
	10200 2400 10200 2600
Connection ~ 10200 2500
Wire Wire Line
	9850 2500 9850 2400
Connection ~ 9850 2500
Wire Wire Line
	9650 2500 9650 2400
Connection ~ 9650 2500
Wire Wire Line
	9450 2500 9450 2400
Connection ~ 9450 2500
Wire Wire Line
	9250 2500 9250 2400
Connection ~ 9250 2500
Wire Wire Line
	9050 2400 9050 2500
Connection ~ 9050 2500
Wire Wire Line
	8850 1900 8850 2000
Wire Wire Line
	8850 1950 9850 1950
Wire Wire Line
	9850 1950 9850 2000
Connection ~ 8850 1950
Wire Wire Line
	9650 2000 9650 1950
Connection ~ 9650 1950
Wire Wire Line
	9450 2000 9450 1950
Connection ~ 9450 1950
Wire Wire Line
	9250 2000 9250 1950
Connection ~ 9250 1950
Wire Wire Line
	9050 2000 9050 1950
Connection ~ 9050 1950
Wire Wire Line
	10200 1900 10200 2000
Wire Wire Line
	10400 2000 10400 1950
Wire Wire Line
	10400 1950 10200 1950
Connection ~ 10200 1950
Wire Wire Line
	8850 2500 9850 2500
Wire Wire Line
	10200 2500 10400 2500
$Comp
L DGND #PWR022
U 1 1 5307DE82
P 10200 2600
F 0 "#PWR022" H 10200 2600 40  0001 C CNN
F 1 "DGND" H 10200 2530 40  0000 C CNN
F 2 "" H 10200 2600 60  0000 C CNN
F 3 "" H 10200 2600 60  0000 C CNN
	1    10200 2600
	1    0    0    -1  
$EndComp
$Comp
L NCP4680 U2
U 1 1 5307E107
P 9050 900
F 0 "U2" H 8800 1100 40  0000 C CNN
F 1 "NCP4680-3.3V" H 9150 1100 40  0000 C CNN
F 2 "SC70-5" H 9050 1000 35  0000 C CIN
F 3 "" H 9050 900 60  0000 C CNN
	1    9050 900 
	1    0    0    -1  
$EndComp
Wire Wire Line
	8600 850  8600 650 
Wire Wire Line
	8600 650  9500 650 
Wire Wire Line
	9500 650  9500 850 
$Comp
L DGND #PWR023
U 1 1 5307E246
P 9050 1500
F 0 "#PWR023" H 9050 1500 40  0001 C CNN
F 1 "DGND" H 9050 1430 40  0000 C CNN
F 2 "" H 9050 1500 60  0000 C CNN
F 3 "" H 9050 1500 60  0000 C CNN
	1    9050 1500
	1    0    0    -1  
$EndComp
Wire Wire Line
	9050 1200 9050 1500
NoConn ~ 8600 1000
$Comp
L USB-MINI-B P8
U 1 1 5307E388
P 9950 4850
F 0 "P8" H 9700 5300 60  0000 C CNN
F 1 "USB-MINI-B" H 9900 4350 60  0000 C CNN
F 2 "" H 9950 4850 60  0000 C CNN
F 3 "" H 9950 4850 60  0000 C CNN
	1    9950 4850
	1    0    0    -1  
$EndComp
$Comp
L VCC #PWR024
U 1 1 5307E39C
P 8500 850
F 0 "#PWR024" H 8500 950 30  0001 C CNN
F 1 "VCC" H 8500 950 30  0000 C CNN
F 2 "" H 8500 850 60  0000 C CNN
F 3 "" H 8500 850 60  0000 C CNN
	1    8500 850 
	1    0    0    -1  
$EndComp
Wire Wire Line
	8600 850  8500 850 
$Comp
L NCP4680 U3
U 1 1 5307E4E0
P 10450 900
F 0 "U3" H 10200 1100 40  0000 C CNN
F 1 "NCP4680-1.8V" H 10550 1100 40  0000 C CNN
F 2 "SC70-5" H 10450 1000 35  0000 C CIN
F 3 "" H 10450 900 60  0000 C CNN
	1    10450 900 
	1    0    0    -1  
$EndComp
Wire Wire Line
	10000 850  10000 650 
Wire Wire Line
	10000 650  10900 650 
Wire Wire Line
	10900 650  10900 850 
$Comp
L DGND #PWR025
U 1 1 5307E4E9
P 10450 1500
F 0 "#PWR025" H 10450 1500 40  0001 C CNN
F 1 "DGND" H 10450 1430 40  0000 C CNN
F 2 "" H 10450 1500 60  0000 C CNN
F 3 "" H 10450 1500 60  0000 C CNN
	1    10450 1500
	1    0    0    -1  
$EndComp
Wire Wire Line
	10450 1200 10450 1500
NoConn ~ 10000 1000
$Comp
L VCC #PWR026
U 1 1 5307E4F1
P 9900 850
F 0 "#PWR026" H 9900 950 30  0001 C CNN
F 1 "VCC" H 9900 950 30  0000 C CNN
F 2 "" H 9900 850 60  0000 C CNN
F 3 "" H 9900 850 60  0000 C CNN
	1    9900 850 
	1    0    0    -1  
$EndComp
Wire Wire Line
	10000 850  9900 850 
$Comp
L +3.3V #PWR027
U 1 1 5307E50C
P 9600 950
F 0 "#PWR027" H 9600 910 30  0001 C CNN
F 1 "+3.3V" H 9600 1060 30  0000 C CNN
F 2 "" H 9600 950 60  0000 C CNN
F 3 "" H 9600 950 60  0000 C CNN
	1    9600 950 
	1    0    0    -1  
$EndComp
Wire Wire Line
	9600 950  9600 1050
Wire Wire Line
	9600 1000 9500 1000
$Comp
L +1.8V #PWR028
U 1 1 5307E64A
P 11000 950
F 0 "#PWR028" H 11000 1090 20  0001 C CNN
F 1 "+1.8V" H 11000 1060 30  0000 C CNN
F 2 "" H 11000 950 60  0000 C CNN
F 3 "" H 11000 950 60  0000 C CNN
	1    11000 950 
	1    0    0    -1  
$EndComp
Wire Wire Line
	11000 950  11000 1050
Wire Wire Line
	11000 1000 10900 1000
NoConn ~ 9400 4700
NoConn ~ 9400 4850
NoConn ~ 9400 5000
$Comp
L VCC #PWR029
U 1 1 5307E8A0
P 9300 4500
F 0 "#PWR029" H 9300 4600 30  0001 C CNN
F 1 "VCC" H 9300 4600 30  0000 C CNN
F 2 "" H 9300 4500 60  0000 C CNN
F 3 "" H 9300 4500 60  0000 C CNN
	1    9300 4500
	1    0    0    -1  
$EndComp
$Comp
L DGND #PWR030
U 1 1 5307E8B4
P 9300 5200
F 0 "#PWR030" H 9300 5200 40  0001 C CNN
F 1 "DGND" H 9300 5130 40  0000 C CNN
F 2 "" H 9300 5200 60  0000 C CNN
F 3 "" H 9300 5200 60  0000 C CNN
	1    9300 5200
	1    0    0    -1  
$EndComp
Wire Wire Line
	9300 5200 9300 5150
Wire Wire Line
	9300 5150 9400 5150
Wire Wire Line
	9300 4500 9300 4550
Wire Wire Line
	9300 4550 9400 4550
Text Notes 9650 4300 0    60   ~ 0
HEADERS, \nCONNECTORS\nAND JUMPERS
$Comp
L ATTINY9-TS U4
U 1 1 530A58D3
P 8600 6000
F 0 "U4" H 7600 6400 40  0000 C CNN
F 1 "ATTINY9-TS" H 9450 5600 40  0000 C CNN
F 2 "SOT23-6" H 9400 6000 35  0000 C CIN
F 3 "" H 8600 6000 60  0000 C CNN
	1    8600 6000
	1    0    0    -1  
$EndComp
$Comp
L CONN_3X2 P7
U 1 1 530A5A57
P 6300 2000
F 0 "P7" H 6300 2250 50  0000 C CNN
F 1 "CONN_3X2" V 6300 2050 40  0000 C CNN
F 2 "" H 6300 2000 60  0000 C CNN
F 3 "" H 6300 2000 60  0000 C CNN
	1    6300 2000
	1    0    0    -1  
$EndComp
Text Label 5600 1850 0    60   ~ 0
TPIDATA
Text Label 6800 1850 0    60   ~ 0
VCC_CONN
Text Label 5600 1950 0    60   ~ 0
TPICLK
Text Label 5600 2050 0    60   ~ 0
/RESET
$Comp
L DGND #PWR031
U 1 1 530A5AF7
P 6850 2100
F 0 "#PWR031" H 6850 2100 40  0001 C CNN
F 1 "DGND" H 6850 2030 40  0000 C CNN
F 2 "" H 6850 2100 60  0000 C CNN
F 3 "" H 6850 2100 60  0000 C CNN
	1    6850 2100
	1    0    0    -1  
$EndComp
Wire Wire Line
	6850 2050 6700 2050
Text Label 4200 1450 0    60   ~ 0
CLKOUT
Wire Wire Line
	7050 6050 7400 6050
Wire Wire Line
	7050 5950 7400 5950
Wire Wire Line
	7050 5850 7400 5850
$Comp
L R R6
U 1 1 530A605F
P 6800 6150
F 0 "R6" V 6900 6150 40  0000 C CNN
F 1 "1k" V 6807 6151 40  0000 C CNN
F 2 "" V 6730 6150 30  0000 C CNN
F 3 "" H 6800 6150 30  0000 C CNN
	1    6800 6150
	0    1    1    0   
$EndComp
Wire Wire Line
	7050 6150 7400 6150
Wire Wire Line
	5600 1850 5900 1850
NoConn ~ 6700 1950
Text Label 10000 5750 2    60   ~ 0
VCC1
Wire Wire Line
	9800 5750 10050 5750
$Comp
L DGND #PWR032
U 1 1 530A69E2
P 9950 6300
F 0 "#PWR032" H 9950 6300 40  0001 C CNN
F 1 "DGND" H 9950 6230 40  0000 C CNN
F 2 "" H 9950 6300 60  0000 C CNN
F 3 "" H 9950 6300 60  0000 C CNN
	1    9950 6300
	1    0    0    -1  
$EndComp
Wire Wire Line
	9800 6250 10050 6250
Wire Wire Line
	9950 6250 9950 6300
Text Notes 4100 1250 0    60   ~ 0
Jumper\n12 - power from 3,3V \n23 - power from icsp
$Comp
L +3.3V #PWR033
U 1 1 530A6B5E
P 4350 700
F 0 "#PWR033" H 4350 660 30  0001 C CNN
F 1 "+3.3V" H 4350 810 30  0000 C CNN
F 2 "" H 4350 700 60  0000 C CNN
F 3 "" H 4350 700 60  0000 C CNN
	1    4350 700 
	1    0    0    -1  
$EndComp
Wire Wire Line
	4350 700  4550 700 
Text Label 4350 800  0    60   ~ 0
VCC1
Text Label 7100 6150 0    60   ~ 0
/RESET
Text Label 6350 6150 0    60   ~ 0
VCC1
Wire Wire Line
	6350 6150 6550 6150
$Comp
L R R5
U 1 1 530A6F7A
P 6800 6050
F 0 "R5" V 6700 6050 40  0000 C CNN
F 1 "100R" V 6807 6051 40  0000 C CNN
F 2 "" V 6730 6050 30  0000 C CNN
F 3 "" H 6800 6050 30  0000 C CNN
	1    6800 6050
	0    1    1    0   
$EndComp
$Comp
L C C9
U 1 1 530A6FC6
P 10050 6000
F 0 "C9" H 10050 6100 40  0000 L CNN
F 1 "100n" H 10056 5915 40  0000 L CNN
F 2 "" H 10088 5850 30  0000 C CNN
F 3 "" H 10050 6000 60  0000 C CNN
	1    10050 6000
	1    0    0    -1  
$EndComp
Connection ~ 9950 6250
Wire Wire Line
	10050 5750 10050 5800
Wire Wire Line
	10050 6250 10050 6200
Text Label 7050 5850 0    60   ~ 0
TPIDATA
Text Label 7050 5950 0    60   ~ 0
TPICLK
Wire Wire Line
	6200 6050 6550 6050
$Comp
L CONN_2 J1
U 1 1 530A79A6
P 4900 1550
F 0 "J1" V 4850 1550 40  0000 C CNN
F 1 "CONN_2" V 4950 1550 40  0000 C CNN
F 2 "" H 4900 1550 60  0000 C CNN
F 3 "" H 4900 1550 60  0000 C CNN
	1    4900 1550
	1    0    0    -1  
$EndComp
Text Notes 4150 2000 0    60   ~ 0
Jumper to provide\nclock to clpd from\nattiny
Wire Wire Line
	4200 1450 4550 1450
Wire Wire Line
	4350 1650 4550 1650
Text Label 4350 1650 0    60   ~ 0
CLK0
$Comp
L CONN_3 J2
U 1 1 530A79BE
P 4900 800
F 0 "J2" V 4850 800 50  0000 C CNN
F 1 "CONN_3" V 4950 800 40  0000 C CNN
F 2 "" H 4900 800 60  0000 C CNN
F 3 "" H 4900 800 60  0000 C CNN
	1    4900 800 
	1    0    0    -1  
$EndComp
Text Label 4100 900  0    60   ~ 0
VCC_CONN
Wire Wire Line
	4100 900  4550 900 
Wire Wire Line
	4350 800  4550 800 
Text Label 6200 6050 0    60   ~ 0
CLKOUT
$Comp
L R R7
U 1 1 530A7E32
P 8500 1700
F 0 "R7" V 8450 1500 40  0000 C CNN
F 1 "1k" V 8507 1701 40  0000 C CNN
F 2 "" V 8430 1700 30  0000 C CNN
F 3 "" H 8500 1700 30  0000 C CNN
	1    8500 1700
	1    0    0    -1  
$EndComp
$Comp
L LED D1
U 1 1 530A7E3F
P 8500 2250
F 0 "D1" H 8500 2350 50  0000 C CNN
F 1 "LED" H 8500 2150 50  0000 C CNN
F 2 "" H 8500 2250 60  0000 C CNN
F 3 "" H 8500 2250 60  0000 C CNN
	1    8500 2250
	0    1    1    0   
$EndComp
Wire Wire Line
	8500 2050 8500 1950
$Comp
L DGND #PWR034
U 1 1 530A8254
P 8500 2600
F 0 "#PWR034" H 8500 2600 40  0001 C CNN
F 1 "DGND" H 8500 2530 40  0000 C CNN
F 2 "" H 8500 2600 60  0000 C CNN
F 3 "" H 8500 2600 60  0000 C CNN
	1    8500 2600
	1    0    0    -1  
$EndComp
Wire Wire Line
	8500 2600 8500 2450
Text Notes 8050 2500 0    60   ~ 0
board\npower\nled
Wire Wire Line
	8000 1650 8000 1900
Wire Wire Line
	6850 2050 6850 2100
Text Notes 5800 1650 0    60   ~ 0
TPI HEADER\n
$Comp
L VCC #PWR035
U 1 1 530A8A05
P 8500 1350
F 0 "#PWR035" H 8500 1450 30  0001 C CNN
F 1 "VCC" H 8500 1450 30  0000 C CNN
F 2 "" H 8500 1350 60  0000 C CNN
F 3 "" H 8500 1350 60  0000 C CNN
	1    8500 1350
	1    0    0    -1  
$EndComp
Wire Wire Line
	8500 1350 8500 1450
Text Notes 6050 5850 0    60   ~ 0
8Mhz max at 3,3V
Wire Wire Line
	9050 1450 9600 1450
Connection ~ 9050 1450
Connection ~ 9600 1000
Wire Wire Line
	10450 1450 11000 1450
Connection ~ 10450 1450
Connection ~ 11000 1000
Text Notes 7850 5600 0    60   ~ 0
ATTINY9  to generate CPLD clock
$Comp
L C C10
U 1 1 530A953D
P 9600 1250
F 0 "C10" H 9600 1350 40  0000 L CNN
F 1 "100n" H 9606 1165 40  0000 L CNN
F 2 "" H 9638 1100 30  0000 C CNN
F 3 "" H 9600 1250 60  0000 C CNN
	1    9600 1250
	1    0    0    -1  
$EndComp
$Comp
L C C11
U 1 1 530A954E
P 11000 1250
F 0 "C11" H 11000 1350 40  0000 L CNN
F 1 "100n" H 11006 1165 40  0000 L CNN
F 2 "" H 11038 1100 30  0000 C CNN
F 3 "" H 11000 1250 60  0000 C CNN
	1    11000 1250
	1    0    0    -1  
$EndComp
$Comp
L VCC #PWR036
U 1 1 53198FD3
P 5850 3050
F 0 "#PWR036" H 5850 3150 30  0001 C CNN
F 1 "VCC" H 5850 3150 30  0000 C CNN
F 2 "" H 5850 3050 60  0000 C CNN
F 3 "" H 5850 3050 60  0000 C CNN
	1    5850 3050
	1    0    0    -1  
$EndComp
Wire Wire Line
	5850 3100 5850 3050
Wire Wire Line
	6700 1850 6800 1850
Wire Wire Line
	5600 1950 5900 1950
Wire Wire Line
	5600 2050 5900 2050
$EndSCHEMATC
