M48
INCH,TZ
T1C0.015
T2C0.040
T3C0.035
%
G90
G05
T1
X54500Y-24000
X54500Y-25000
X54500Y-26000
X54600Y-40100
X54600Y-40900
X55500Y-24000
X55500Y-25000
X55500Y-26000
X55600Y-42350
X56500Y-24000
X56500Y-25000
X56500Y-26000
X57500Y-24000
X57500Y-25000
X57500Y-26000
X57500Y-27000
X57925Y-35300
X58490Y-37360
X58725Y-39625
X59075Y-37950
X59580Y-32910
X60050Y-31050
X61100Y-34925
X61300Y-32850
X61500Y-36150
X61600Y-35550
X62400Y-30100
X62750Y-38350
X62850Y-37300
X63150Y-26650
X63500Y-40000
X63500Y-41000
X63500Y-42000
X63750Y-33000
X63800Y-27350
X63950Y-30850
X64250Y-33000
X65200Y-35400
X65250Y-30650
X65250Y-34800
X66000Y-39900
X67750Y-33850
X67750Y-35400
X67950Y-30700
X68300Y-32450
X69050Y-27350
X69400Y-26600
X69850Y-38000
X72200Y-31500
X72345Y-37605
X73050Y-30600
X73100Y-32300
X73800Y-31600
X74500Y-25000
X74500Y-26000
X74600Y-37600
X75500Y-25000
X75500Y-26000
X75500Y-37000
X76500Y-26000
X76500Y-37000
T2
X55500Y-27000
X55500Y-28000
X55500Y-29000
X55500Y-30000
X55500Y-31000
X55500Y-32000
X55500Y-33000
X55500Y-34000
X55500Y-35000
X55500Y-36000
X56500Y-27000
X56500Y-28000
X56500Y-29000
X56500Y-30000
X56500Y-31000
X56500Y-32000
X56500Y-33000
X56500Y-34000
X56500Y-35000
X56500Y-36000
X58000Y-31000
X58500Y-24000
X58500Y-25000
X58500Y-41000
X58500Y-42000
X59000Y-31000
X59500Y-24000
X59500Y-25000
X59500Y-41000
X59500Y-42000
X60500Y-24000
X60500Y-25000
X60500Y-41000
X60500Y-42000
X61500Y-24000
X61500Y-25000
X61500Y-41000
X61500Y-42000
X62500Y-24000
X62500Y-25000
X62500Y-41000
X62500Y-42000
X64500Y-24000
X64500Y-25000
X64500Y-41000
X64500Y-42000
X65500Y-24000
X65500Y-25000
X65500Y-41000
X65500Y-42000
X66500Y-24000
X66500Y-25000
X66500Y-41000
X66500Y-42000
X67500Y-24000
X67500Y-25000
X67500Y-41000
X67500Y-42000
X68500Y-24000
X68500Y-25000
X68500Y-41000
X68500Y-42000
X69500Y-24000
X69500Y-25000
X69500Y-41000
X69500Y-42000
X70500Y-24000
X70500Y-25000
X70500Y-41000
X70500Y-42000
X71500Y-24000
X71500Y-25000
X71500Y-41000
X71500Y-42000
X72500Y-24000
X72500Y-25000
X72500Y-41000
X72500Y-42000
X73500Y-24000
X73500Y-25000
X73500Y-41000
X73500Y-42000
X75000Y-41500
X75500Y-27000
X75500Y-28000
X75500Y-29000
X75500Y-30000
X75500Y-31000
X75500Y-32000
X75500Y-33000
X75500Y-34000
X75500Y-35000
X75500Y-36000
X75500Y-38000
X75500Y-39000
X75500Y-40000
X76000Y-41500
X76500Y-27000
X76500Y-28000
X76500Y-29000
X76500Y-30000
X76500Y-31000
X76500Y-32000
X76500Y-33000
X76500Y-34000
X76500Y-35000
X76500Y-36000
X76500Y-38000
X76500Y-39000
X76500Y-40000
X77000Y-41500
T3
X55730Y-39549
X55730Y-41281
T0
M30
