(module Pin_Header_Straight_2x03 (layer F.Cu)
  (descr "1 pin")
  (tags "CONN DEV")
  (fp_text reference P7 (at 0 -3.81) (layer F.SilkS)
    (effects (font (size 1.27 1.27) (thickness 0.2032)))
  )
  (fp_text value CONN_3X2 (at 0 0) (layer F.SilkS) hide
    (effects (font (size 1.27 1.27) (thickness 0.2032)))
  )
  (fp_line (start -3.81 0) (end -1.27 0) (layer F.SilkS) (width 0.254))
  (fp_line (start -1.27 0) (end -1.27 2.54) (layer F.SilkS) (width 0.254))
  (fp_line (start -3.81 2.54) (end 3.81 2.54) (layer F.SilkS) (width 0.254))
  (fp_line (start 3.81 2.54) (end 3.81 -2.54) (layer F.SilkS) (width 0.254))
  (fp_line (start 3.81 -2.54) (end -1.27 -2.54) (layer F.SilkS) (width 0.254))
  (fp_line (start -3.81 2.54) (end -3.81 0) (layer F.SilkS) (width 0.254))
  (fp_line (start -3.81 -2.54) (end -3.81 0) (layer F.SilkS) (width 0.254))
  (fp_line (start -1.27 -2.54) (end -3.81 -2.54) (layer F.SilkS) (width 0.254))
  (pad 1 thru_hole rect (at -2.54 1.27) (size 1.7272 1.7272) (drill 1.016) (layers *.Cu *.Mask F.SilkS))
  (pad 3 thru_hole oval (at 0 1.27) (size 1.7272 1.7272) (drill 1.016) (layers *.Cu *.Mask F.SilkS))
  (pad 5 thru_hole oval (at 2.54 1.27) (size 1.7272 1.7272) (drill 1.016) (layers *.Cu *.Mask F.SilkS))
  (pad 6 thru_hole oval (at 2.54 -1.27) (size 1.7272 1.7272) (drill 1.016) (layers *.Cu *.Mask F.SilkS))
  (pad 4 thru_hole oval (at 0 -1.27) (size 1.7272 1.7272) (drill 1.016) (layers *.Cu *.Mask F.SilkS))
  (pad 2 thru_hole oval (at -2.54 -1.27) (size 1.7272 1.7272) (drill 1.016) (layers *.Cu *.Mask F.SilkS))
  (model Pin_Headers/Pin_Header_Straight_2x03.wrl
    (at (xyz 0 0 0))
    (scale (xyz 1 1 1))
    (rotate (xyz 0 0 0))
  )
)
